{
  "data": [
    {
      "id": 1000001,
      "user_id": 42,
      "date": "2026-06-10 18:00:00",
      "timezone": "Europe/Budapest",
      "distance": 10000.0,
      "type": "rower",
      "workout_type": "FixedDistanceSplits",
      "time": 24000,
      "time_formatted": "40:00.0",
      "calories_total": 702,
      "stroke_rate": 20,
      "drag_factor": 118,
      "heart_rate": {
        "min": 95,
        "average": 152,
        "max": 171
      },
      "verified": true,
      "source": "ErgData iOS"
    },
    {
      "id": 1000002,
      "user_id": 42,
      "date": "2026-06-09 06:30:00",
      "timezone": "Europe/Budapest",
      "distance": 5000.0,
      "type": "rower",
      "workout_type": "JustRow",
      "time": 11705,
      "time_formatted": "19:30.5",
      "calories_total": 348,
      "stroke_rate": 22,
      "verified": true,
      "source": "ErgData iOS"
    }
  ],
  "meta": {
    "pagination": {
      "total": 137,
      "count": 2,
      "per_page": 2,
      "current_page": 1,
      "total_pages": 69,
      "links": {
        "next": "https://log.concept2.com/api/users/me/results?type=rower&page=2"
      }
    }
  }
}
